Lab: Creating Good Graphics
…
national_population_data %>%
  filter(year == "2023" | year == "2024") %>%
  group_by(age) %>%
  count()

# A tibble: 30 × 2
# Groups:   age [30]
   age                    n
   <chr>              <int>
 1 .10 to 14 years        6
 2 .14 to 17 years        6
 3 .15 to 19 years        6
 4 .15 to 44 years        6
 5 .16 years and over     6
 6 .18 to 24 years        6
 7 .18 to 64 years        6
 8 .18 years and over     6
 9 .20 to 24 years        6
10 .25 to 29 years        6
# ℹ 20 more rows
…
